<svg width="11" height="19" viewBox="0 0 11 19" fill="none" xmlns="http://www.w3.org/2000/svg">
<path d="M9.43677 10.7955L9.93113 7.57408H6.84012V5.48362C6.84012 4.60231 7.27191 3.74325 8.65628 3.74325H10.0615V1.00059C10.0615 1.00059 8.7863 0.782959 7.56707 0.782959C5.02153 0.782959 3.35765 2.32586 3.35765 5.11893V7.57408H0.528076V10.7955H3.35765V18.583H6.84012V10.7955H9.43677Z" fill="#2A2F2F"/>
</svg>
